C-3G0_590,C-3G0_639,C-1G0_590,C-1G0_639,C0G0_590,C0G0_639,C1G0_590,C1G0_639
2.292768959,6.037735849,6.76510989,8.766519824,4.817762882,11.6838488,1.236516706,10.48780488
2.78436019,8.96,5.694444444,8.919202518,1.248127808,7.849829352,0.338045482,17.10526316
1.591289782,8.659793814,4.753820034,5.263157895,6.594036697,17.24659607,1.001581444,15.31531532