G10C0_639,G10C0_590,G9C1_639,G9C1_590,G5C5_639,G5C5_590,G0C10_639,G0C10_590,G10C0_639,G10C0_590,G9C1_639,G9C1_590,G5C5_639,G5C5_590,G0C10_639,G0C10_590
98335338.75,20621576.25,324235456.9,62476610.63,288674842.5,728479063.1,14025639.38,8997694386,506,192,1312,1134,1387,5359,42,16387
32557016.25,12855645,380594610,9828225,399211065,2737008883,4129351.875,16261444176,241,128,1374,321,1383,6725,60,22605
90895426.88,3020613.75,277666413.8,54845443.13,1208766859,6811708613,9673723.125,15803406011,371,97,1082,886,4211,11771,71,21983
112381396.9,23996115,175740097.5,25897100.63,461744167.5,1807989109,1770305.625,8020678298,402,366,716,631,2423,11584,51,16806
54398272.5,4145686.875,264392184.4,50579966.25,565674243.8,1618088608,13900404.38,7160315209,247,143,1031,870,2180,8526,103,20197